{
	"AWSTemplateFormatVersion": "2010-09-09",
	"Parameters": {
		"SNSTopicName": {
			"Type": "String",
			"Description": "Enter Topic Name to which the Policy will be linked."
		}
	},
	"Resources": {
		"TopicPolicy": {
			"Type": "AWS::SNS::TopicPolicy",
			"Properties": {
				"PolicyDocument": {
					"Version": "2008-10-17",
					"Id": "SNSTopicPolicy",
					"Statement": [{
						"Sid": "TopicPolicy-statement-id",
						"Effect": "Allow",
						"Principal": {
							"AWS": "*"
						},
						"Action": [
							"SNS:GetTopicAttributes",
							"SNS:SetTopicAttributes",
							"SNS:AddPermission",
							"SNS:RemovePermission",
							"SNS:DeleteTopic",
							"SNS:Subscribe",
							"SNS:ListSubscriptionsByTopic",
							"SNS:Publish",
							"SNS:Receive"
						],
						"Resource": "*"
					}]
				},
				"Topics": [ {"Fn::Join": [ ":", [
                                        "arn:aws:sns",
                                        { "Ref": "AWS::Region" },
                                        { "Ref": "AWS::AccountId" },
                                        {"Ref":"SNSTopicName"}
                                      ]
                                    ]
				}
                                    ]

			}
		}

	},
	"Outputs": {
		"SNSURL": {
			"Description": "URL of newly created SNS Queue",
			"Value": {
				"Ref": "SNSTopicName"
					}
		}
	}

}