{
    "AWSTemplateFormatVersion": "2010-09-09",
	"Parameters":{
	 "SNSTopicName":{
          "Type":"String",
          "Description":"Enter Topic Name to which the Policy will be linked."
    },
"SNSTopicPolicy" : {
   "Type" : "AWS::SNS::TopicPolicy",
   "Properties" : {
   "PolicyDocument" :  {
         "Id" : "SNSTopicPolicy",
         "Version" : "2018-07-22",
"Statement": [
    {
      "Sid": "SNS-statement-id",
      "Effect": "Allow",
      "Principal": {
        "AWS": "*"
      },
      "Action": [
        "SNS:GetTopicAttributes",
        "SNS:SetTopicAttributes",
        "SNS:AddPermission",
        "SNS:RemovePermission",
        "SNS:DeleteTopic",
        "SNS:Subscribe",
        "SNS:ListSubscriptionsByTopic",
        "SNS:Publish",
        "SNS:Receive"
      ],
    "TopicName": {"Ref":"SNSTopicName"}
    }
    }
    }
	}
	}
	}