{
	"AWSTemplateFormatVersion": "2010-09-09",
	"Parameters": {
		"PublicSubnetCidr": {
			"Description": "Comma-delimited list of three CIDR blocks",
			"Type": "CommaDelimitedList",
			"Default": "10.0.0.0/24, 10.0.1.0/24"
		}
	},
	"Mappings": {
		"subnetAZ": {
			"subnetAZ-a": {
				"Zone1": "ap-southeast-2a"
			},
			"subnetAZ-b": {
				"Zone2": "ap-southeast-2b"
			}
		}
	},
	"Resources": {
		"myVPC": {
			"Type": "AWS::EC2::VPC",
			"Properties": {
				"CidrBlock": "10.0.0.0/16",
				"EnableDnsSupport": "false",
				"EnableDnsHostnames": "false",
				"InstanceTenancy": "dedicated",
				"Tags": [{
					"Key": "foo",
					"Value": "bar"
				}]
			}
		},
		"publicSubnet1": {
			"Type": "AWS::EC2::Subnet",
			"Properties": {
				"CidrBlock": {
					"Fn::Select": [
						"0",
						{
							"Ref": "PublicSubnetCidr"
						}
					]
				},
				"AvailabilityZone": {
					"Fn::FindInMap": [
						"subnetAZ",
						"subnetAZ-a",
						"Zone1"
					]
				},
				"VpcId": {
					"Ref": "myVPC"
				}
			}
		},
		"publicSubnet2": {
			"Type": "AWS::EC2::Subnet",
			"Properties": {
				"CidrBlock": {
					"Fn::Select": [
						"1",
						{
							"Ref": "PublicSubnetCidr"
						}
					]
				},
				"AvailabilityZone": {
					"Fn::FindInMap": [
						"subnetAZ",
						"subnetAZ-b",
						"Zone2"
					]
				},
				"VpcId": {
					"Ref": "myVPC"
				}
			}
		}
	},
	"Outputs": {
		"VPCCidr": {
			"Description": "ARN of newly created VPC",
			"Value": {
				"Fn::GetAtt": [
					"myVPC",
					"CidrBlock"
				]
			}
		},
		"publicSubnet1Cidr": {
			"Description": "ARN of newly created Subnet1",
			"Value": {
				"Fn::GetAtt": [
					"publicSubnet1",
					"CidrBlock"
				]
			}
		},
		"publicSubnet2Cidr": {
			"Description": "ARN of newly created Subnet2",
			"Value": {
				"Fn::GetAtt": [
					"publicSubnet2",
					"CidrBlock"
				]
			}
		}
	}
}